<?xml version="1.0" encoding="UTF-8" standalone="no"?>
<svg
   xmlns:dc="http://purl.org/dc/elements/1.1/"
   xmlns:cc="http://creativecommons.org/ns#"
   xmlns:rdf="http://www.w3.org/1999/02/22-rdf-syntax-ns#"
   xmlns:svg="http://www.w3.org/2000/svg"
   xmlns="http://www.w3.org/2000/svg"
   width="2560"
   height="256"
   version="1.1">
  <title>Parabola - Retro Parabola User Repository Logotype (Default Color, recreation of legacy logo)</title>
  <metadata>
    <rdf:RDF>
      <cc:Work
         rdf:about="">
        <dc:format>image/svg+xml</dc:format>
        <dc:type
           rdf:resource="http://purl.org/dc/dcmitype/StillImage" />
        <dc:title>Parabola - Retro Parabola User Repository Logotype (Default Color, recreation of legacy logo)</dc:title>
        <cc:license
           rdf:resource="https://projects.parabola.nu/pac.git/tree/COPYING" />
        <dc:date>2015/09/18</dc:date>
        <dc:creator>
          <cc:Agent>
            <dc:title>Márcio Alexandre Silva Delgado &lt;coadde@parabola.nu&gt;</dc:title>
          </cc:Agent>
        </dc:creator>
        <dc:subject>
          <rdf:Bag>
            <rdf:li>Parabola, User Repository, PUR</rdf:li>
          </rdf:Bag>
        </dc:subject>
      </cc:Work>
    </rdf:RDF>
  </metadata>
  <g
     id="g_parabola_retroLogotype-parabolaUserRepository-default_r2560x256px_p2255d103x241d108px_flk-dejavuSerif">
    <path
       id="path_parabola_retroIcon-default_r2560x256px_p256x241d108px"
       d="m 152.44828,88.841082 c 0,0 200.74103,-114.715849 246.81309,-71.773294 C 448.66253,63.113548 282.74019,248.554 282.74019,248.554 c 0,0 81.45582,-112.43685 47.4634,-167.982129 -29.63324,-48.422263 -177.75531,8.269211 -177.75531,8.269211 z"
       style="fill:#ffffff" />
    <text
       id="text_parabola_retroLogotype-parabolaUserRepository-default_r2560x256px_p1917d628x131d334px_flk-dejavuSerif"
       x="493.05893"
       y="158.37292"
       style="font-style:italic;font-weight:bold;font-size:133.75px;font-family:'DejaVu Serif';fill:#ffffff">Parabola User Repository</text>
  </g>
</svg>
