<?xml version="1.0" encoding="UTF-8" standalone="no"?>
<svg
   xmlns:dc="http://purl.org/dc/elements/1.1/"
   xmlns:cc="http://creativecommons.org/ns#"
   xmlns:rdf="http://www.w3.org/1999/02/22-rdf-syntax-ns#"
   xmlns:svg="http://www.w3.org/2000/svg"
   xmlns="http://www.w3.org/2000/svg"
   height="160"
   width="670"
   version="1.1">
  <title>Parabola - Official Parabola GNU/Linux-libre Logotype (Grayscale Icon Color, White Text Color)</title>
  <metadata>
    <rdf:RDF>
      <cc:Work
         rdf:about="">
        <dc:format>image/svg+xml</dc:format>
        <dc:type
           rdf:resource="http://purl.org/dc/dcmitype/StillImage" />
        <dc:title>Parabola - Official Parabola GNU/Linux-libre Logotype (Grayscale Icon Color, White Text Color)</dc:title>
        <cc:license
           rdf:resource="https://projects.parabola.nu/pac.git/tree/COPYING" />
        <dc:date>2015/05/26</dc:date>
        <dc:creator>
          <cc:Agent>
            <dc:title>Jorge Araya Navarro &lt;elcorreo@deshackra.com&gt; and Márcio Alexandre Silva Delgado &lt;coadde@parabola.nu&gt;</dc:title>
          </cc:Agent>
        </dc:creator>
        <dc:subject>
          <rdf:Bag>
            <rdf:li>Parabola, GNU/Linux-libre</rdf:li>
          </rdf:Bag>
        </dc:subject>
      </cc:Work>
    </rdf:RDF>
  </metadata>
  <g>
    <path
       id="path3488"
       d="m 147.47929,5 c -4.58342,0.43796 -9.44975,1.24294 -14.52578,2.31649 L 100.7951,40.31976 c 3.68608,0.44343 7.05945,1.17552 10.13806,2.20749 L 147.47929,5 Z m 22.64718,1.85319 -44.50399,45.64862 C 138.13877,68.72199 133.72986,101.30423 107.3903,155 126.87758,133.72765 211.92624,28.0151 173.01528,8.07959 c -0.90341,-0.46286 -1.89131,-0.861 -2.88881,-1.2264 z m -59.30231,6.4317 c -6.15635,1.95909 -12.422701,4.18004 -18.668239,6.54069 l -21.28452,21.82957 c 4.882365,-0.79156 9.511695,-1.32363 13.87173,-1.60792 L 110.82416,13.28489 Z M 78.911011,25.03088 C 40.079881,41.00354 5.3554199,60.51418 5.3554199,60.51418 25.983481,52.78365 44.613346,47.00453 60.869581,43.5356 l 18.04143,-18.50472 z"
       style="fill:#808080" />
    <text
       id="text4161"
       y="110.83447"
       x="193.0793"
       style="font-size:85px;font-family:'URW Gothic';fill:#ffffff">Parabola</text>
    <text
       id="text4173"
       y="93.060966"
       x="572.31158"
       style="font-weight:600;font-size:40px;font-family:'URW Gothic';fill:#808080">GNU</text>
    <text
       id="text4177"
       y="111.70464"
       x="572.23871"
       style="font-weight:600;font-size:18.75px;font-family:'URW Gothic';fill:#808080">Linux-libre</text>
  </g>
</svg>
