<?xml version="1.0" encoding="UTF-8" standalone="no"?>
<svg
   xmlns:dc="http://purl.org/dc/elements/1.1/"
   xmlns:cc="http://creativecommons.org/ns#"
   xmlns:rdf="http://www.w3.org/1999/02/22-rdf-syntax-ns#"
   xmlns:svg="http://www.w3.org/2000/svg"
   xmlns="http://www.w3.org/2000/svg"
   width="1024"
   height="256"
   version="1.1">
  <title>Parabola - Official Parabola GNU/Linux-libre Logotype (Default Icon Color, White Text Color)</title>
  <metadata>
    <rdf:RDF>
      <cc:Work
         rdf:about="">
        <dc:format>image/svg+xml</dc:format>
        <dc:type
           rdf:resource="http://purl.org/dc/dcmitype/StillImage" />
        <dc:title>Parabola - Official Parabola GNU/Linux-libre Logotype (Default Icon Color, White Text Color)</dc:title>
        <cc:license
           rdf:resource="https://projects.parabola.nu/pac.git/tree/COPYING" />
        <dc:date>2015/10/21</dc:date>
        <dc:creator>
          <cc:Agent>
            <dc:title>Jorge Araya Navarro &lt;elcorreo@deshackra.com&gt; and Márcio Alexandre Silva Delgado &lt;coadde@parabola.nu&gt;</dc:title>
          </cc:Agent>
        </dc:creator>
        <dc:subject>
          <rdf:Bag>
            <rdf:li>Parabola, GNU/Linux-libre</rdf:li>
          </rdf:Bag>
        </dc:subject>
      </cc:Work>
    </rdf:RDF>
  </metadata>
  <g
     id="g_parabola_officialLogotype-parabola-gnu+linuxlibre-default+whiteText_r1024x256px_p946d429x216d058px_flk-urwGothic">
    <path
       id="path_parabola_officialIcon-default_r1024x256px_p256x216d058px"
       d="m 243.49934,19.970792 c -6.60191,0.630833 -13.61132,1.790317 -20.92278,3.336647 l -46.32064,47.537558 c 5.30939,0.638712 10.16837,1.693207 14.60277,3.179645 l 52.64065,-54.05385 z m 32.62076,2.669315 -64.10307,65.751786 c 18.02833,23.363367 11.67778,70.294477 -26.26144,147.637317 28.06927,-30.64047 150.57245,-182.907714 94.52552,-211.622609 -1.30126,-0.666698 -2.72422,-1.240175 -4.16101,-1.766493 z m -85.41841,9.264152 c -8.86756,2.821852 -17.89353,6.020885 -26.88954,9.42114 l -30.658,31.443079 c 7.03251,-1.140154 13.70055,-1.906542 19.9807,-2.31603 L 190.70169,31.904259 Z M 144.73433,48.823057 C 88.802374,71.829907 38.785633,99.932822 38.785633,99.932822 68.49807,88.797853 95.332328,80.473673 118.74764,75.477059 l 25.98669,-26.654002 z"
       style="fill:#787dab" />
    <text
       id="text_parabola_officialLogotype-parabola-white_r1024x256px_p530d976x92d026px_flk-urwGothic"
       x="309.1911"
       y="172.32974"
       style="font-size:122.375px;font-family:'URW Gothic';fill:#ffffff">Parabola</text>
    <text
       id="text_parabola_officialLogotype-gnu-default_r1024x256px_p120d673x43d605px_flk-urwGothic"
       x="855.55664"
       y="146.817"
       style="font-weight:600;font-size:57px;font-family:'URW Gothic';fill:#787dab">GNU</text>
    <text
       id="text_parabola_officialLogotype-linuxlibre-default_r1024x256px_p127d948x19d796px_flk-urwGothic"
       x="855.47656"
       y="173.69377"
       style="font-weight:600;font-size:26.32500076px;font-family:'URW Gothic';fill:#787dab">Linux-libre</text>
  </g>
</svg>
