<?xml version="1.0" encoding="UTF-8" standalone="no"?>
<svg
   xmlns:dc="http://purl.org/dc/elements/1.1/"
   xmlns:cc="http://creativecommons.org/ns#"
   xmlns:rdf="http://www.w3.org/1999/02/22-rdf-syntax-ns#"
   xmlns:svg="http://www.w3.org/2000/svg"
   xmlns="http://www.w3.org/2000/svg"
   width="2048"
   height="1928.861"
   version="1.1">
  <title>Parabola Retro Icon (Default Color, recreation of legacy icon)</title>
  <metadata>
    <rdf:RDF>
      <cc:Work
         rdf:about="">
        <dc:format>image/svg+xml</dc:format>
        <dc:type
           rdf:resource="http://purl.org/dc/dcmitype/StillImage" />
        <dc:title>Parabola Retro Icon (Default Color, recreation of legacy icon)</dc:title>
        <cc:license
           rdf:resource="https://projects.parabola.nu/pac.git/tree/COPYING" />
        <dc:date>2015/09/18</dc:date>
        <dc:creator>
          <cc:Agent>
            <dc:title>Márcio Alexandre Silva Delgado &lt;coadde@parabola.nu&gt;</dc:title>
          </cc:Agent>
        </dc:creator>
        <dc:subject>
          <rdf:Bag>
            <rdf:li>Parabola</rdf:li>
          </rdf:Bag>
        </dc:subject>
      </cc:Work>
    </rdf:RDF>
  </metadata>
  <path
     id="path_parabola_retroIcon-default_r2048x1928d861px_p2048x1928d861px"
     d="M -7.5716329e-6,651.15982 C -7.5716329e-6,651.15982 1605.9262,-266.56624 1974.5022,76.97425 2369.711,445.3398 1042.334,1928.8611 1042.334,1928.8611 c 0,0 651.6457,-899.4933 379.7067,-1343.85541 C 1184.9751,197.62831 -7.5716329e-6,651.15982 -7.5716329e-6,651.15982 Z"
     style="fill:#ffffff" />
</svg>
