<?xml version="1.0" encoding="UTF-8" standalone="no"?>
<svg
   xmlns:dc="http://purl.org/dc/elements/1.1/"
   xmlns:cc="http://creativecommons.org/ns#"
   xmlns:rdf="http://www.w3.org/1999/02/22-rdf-syntax-ns#"
   xmlns:svg="http://www.w3.org/2000/svg"
   xmlns="http://www.w3.org/2000/svg"
   width="256"
   height="256"
   version="1.1">
  <title>Parabola Retro Icon (Default Color with 0.3 opacity - Silhouette, recreation of legacy icon)</title>
  <metadata>
    <rdf:RDF>
      <cc:Work
         rdf:about="">
        <dc:format>image/svg+xml</dc:format>
        <dc:type
           rdf:resource="http://purl.org/dc/dcmitype/StillImage" />
        <dc:title>Parabola Retro Icon (Default Color with 0.3 opacity - Silhouette, recreation of legacy icon)</dc:title>
        <cc:license
           rdf:resource="https://projects.parabola.nu/pac.git/tree/COPYING" />
        <dc:date>2015/09/18</dc:date>
        <dc:creator>
          <cc:Agent>
            <dc:title>Márcio Alexandre Silva Delgado &lt;coadde@parabola.nu&gt;</dc:title>
          </cc:Agent>
        </dc:creator>
        <dc:subject>
          <rdf:Bag>
            <rdf:li>Parabola</rdf:li>
          </rdf:Bag>
        </dc:subject>
      </cc:Work>
    </rdf:RDF>
  </metadata>
  <path
     id="path_parabola_retroIcon-silhouette_r256px2_p256x241d108px"
     d="m 1.8260858e-6,88.841137 c 0,0 200.7407681739142,-114.7157 246.8127681739142,-71.7732 49.4011,46.0457 -116.52103,231.485903 -116.52103,231.485903 0,0 81.45572,-112.4367 47.46334,-167.981903 C 148.12188,32.149737 1.8260858e-6,88.841137 1.8260858e-6,88.841137 Z"
     style="fill:#ffffff;opacity:0.3" />
</svg>
