<?xml version="1.0" encoding="UTF-8" standalone="no"?>
<svg
   xmlns:dc="http://purl.org/dc/elements/1.1/"
   xmlns:cc="http://creativecommons.org/ns#"
   xmlns:rdf="http://www.w3.org/1999/02/22-rdf-syntax-ns#"
   xmlns:svg="http://www.w3.org/2000/svg"
   xmlns="http://www.w3.org/2000/svg"
   width="256"
   height="244.278"
   version="1.1">
  <title>Parabola Classic Icon (Grayscale Color)</title>
  <metadata>
    <rdf:RDF>
      <cc:Work
         rdf:about="">
        <dc:format>image/svg+xml</dc:format>
        <dc:type
           rdf:resource="http://purl.org/dc/dcmitype/StillImage" />
        <dc:title>Parabola Classic Icon (Grayscale Color)</dc:title>
        <cc:license
           rdf:resource="http://creativecommons.org/licenses/by-sa/4.0/" />
        <dc:date>2013/04/25</dc:date>
        <dc:creator>
          <cc:Agent>
            <dc:title>Luke Shumaker &lt;lukeshu@sbcglobal.net&gt;</dc:title>
          </cc:Agent>
        </dc:creator>
        <dc:subject>
          <rdf:Bag>
            <rdf:li>Parabola</rdf:li>
          </rdf:Bag>
        </dc:subject>
      </cc:Work>
    </rdf:RDF>
  </metadata>
  <defs>
    <linearGradient
       id="linearGradient_parabola_classicIcon-grayscale_gray"
       x1="245.73532"
       y1="10.29563"
       x2="194.25717"
       y2="216.20824"
       gradientTransform="matrix(1.029563,0,0,0.97128586,-94,-10)"
       gradientUnits="userSpaceOnUse">
      <stop
         stop-color="#ffffff"
         offset="50%" />
      <stop
         stop-color="#444444"
         offset="100%" />
    </linearGradient>
    <linearGradient
       id="linearGradient_parabola_classicIcon-grayscale_purple"
       x1="100"
       y1="50"
       x2="250"
       y2="250"
       gradientTransform="translate(-94,-10)"
       gradientUnits="userSpaceOnUse">
      <stop
         stop-color="#969696"
         offset="0%" />
      <stop
         stop-color="#000000"
         offset="100%" />
    </linearGradient>
    <linearGradient
       id="linearGradient_parabola_classicIcon-grayscale_gmask"
       x1="0"
       y1="0"
       x2="1"
       y2="1">
      <stop
         stop-color="#444444"
         offset="0%" />
      <stop
         stop-color="#ffffff"
         offset="75%" />
    </linearGradient>
    <mask
       id="mask_parabola_classicIcon-grayscale">
      <rect
         x="0"
         y="0"
         width="212"
         height="240"
         style="fill:url(#linearGradient_parabola_classicIcon-grayscale_gmask)" />
    </mask>
  </defs>
  <g
     id="g_parabola_classicIcon-grayscale_r256x244d278px_p256x244d278px"
     transform="matrix(-0.63600966,-0.7579668,0.7579668,-0.63600966,134.83405,244.27808)"
     mask="url(#mask_parabola_classicIcon-grayscale)">
    <path
       id="path_parabola_classicIcon-grayscale_r256x244d278px_pUnknown_gray"
       d="M 0,0 Q 53,200 106,200 159,200 212,0 159,180 106,180 53,180 0,0 Z"
       style="fill:url(#linearGradient_parabola_classicIcon-grayscale_gray)" />
    <path
       id="path_parabola_classicIcon-grayscale_r256x244d278px_pUnknown_purple"
       d="M 6,40 Q 56,240 106,240 156,240 206,40 156,190 106,190 56,190 6,40 Z"
       style="fill:url(#linearGradient_parabola_classicIcon-grayscale_purple)" />
  </g>
</svg>
