<?xml version="1.0" encoding="UTF-8" standalone="no"?>
<svg
   xmlns:dc="http://purl.org/dc/elements/1.1/"
   xmlns:cc="http://creativecommons.org/ns#"
   xmlns:rdf="http://www.w3.org/1999/02/22-rdf-syntax-ns#"
   xmlns:svg="http://www.w3.org/2000/svg"
   xmlns="http://www.w3.org/2000/svg"
   width="22"
   height="22"
   version="1.1">
  <title>Parabola Official Icon (White Color)</title>
  <metadata>
    <rdf:RDF>
      <cc:Work
         rdf:about="">
        <dc:format>image/svg+xml</dc:format>
        <dc:type
           rdf:resource="http://purl.org/dc/dcmitype/StillImage" />
        <dc:title>Parabola Official Icon (White Color)</dc:title>
        <cc:license
           rdf:resource="https://projects.parabola.nu/pac.git/tree/COPYING" />
        <dc:date>2013/04/18</dc:date>
        <dc:creator>
          <cc:Agent>
            <dc:title>Jorge Araya Navarro &lt;elcorreo@deshackra.com&gt;</dc:title>
          </cc:Agent>
        </dc:creator>
        <dc:subject>
          <rdf:Bag>
            <rdf:li>Parabola</rdf:li>
          </rdf:Bag>
        </dc:subject>
      </cc:Work>
    </rdf:RDF>
  </metadata>
  <path
     id="path_parabola_officialIcon-white_r22px2_p22x18d567px"
     d="m 17.592556,1.7163001 c -0.567347,0.054 -1.169717,0.1538 -1.798042,0.2867 l -3.980664,4.0852 c 0.456275,0.055 0.873841,0.1455 1.25492,0.2733 l 4.523786,-4.6452 z m 2.803336,0.2294 -5.508835,5.6505 C 16.43636,9.6040001 15.890612,13.6371 12.630225,20.2837 15.042417,17.6505 25.569987,4.5651001 20.753476,2.0975001 c -0.111826,-0.057 -0.234111,-0.1066 -0.357584,-0.1518 z m -7.340614,0.7961 c -0.762052,0.2425 -1.537718,0.5174 -2.310808,0.8096 l -2.6346617,2.7021 c 0.6043533,-0.098 1.1773851,-0.1638 1.7170831,-0.199 l 3.2283866,-3.3127 z m -3.9503035,1.4539 C 4.2983442,6.1729001 4.9526445e-5,8.5880001 4.9526445e-5,8.5880001 2.5534509,7.6311001 4.8595098,6.9157001 6.8717537,6.4863001 l 2.2332208,-2.2906 z"
     style="fill:#ffffff" />
</svg>
