<?xml version="1.0" encoding="UTF-8" standalone="no"?>
<svg
   xmlns:dc="http://purl.org/dc/elements/1.1/"
   xmlns:cc="http://creativecommons.org/ns#"
   xmlns:rdf="http://www.w3.org/1999/02/22-rdf-syntax-ns#"
   xmlns:svg="http://www.w3.org/2000/svg"
   xmlns="http://www.w3.org/2000/svg"
   width="32"
   height="32"
   version="1.1">
  <title>Parabola Official Icon (Default Color with 0.3 opacity - Silhouette)</title>
  <metadata>
    <rdf:RDF>
      <cc:Work
         rdf:about="">
        <dc:format>image/svg+xml</dc:format>
        <dc:type
           rdf:resource="http://purl.org/dc/dcmitype/StillImage" />
        <dc:title>Parabola Official Icon (Default Color with 0.3 opacity - Silhouette)</dc:title>
        <cc:license
           rdf:resource="https://projects.parabola.nu/pac.git/tree/COPYING" />
        <dc:date>2013/04/18</dc:date>
        <dc:creator>
          <cc:Agent>
            <dc:title>Jorge Araya Navarro &lt;elcorreo@deshackra.com&gt;</dc:title>
          </cc:Agent>
        </dc:creator>
        <dc:subject>
          <rdf:Bag>
            <rdf:li>Parabola</rdf:li>
          </rdf:Bag>
        </dc:subject>
      </cc:Work>
    </rdf:RDF>
  </metadata>
  <path
     id="path_parabola_officialIcon-silhouette_r32px2_p32x27d007px"
     d="m 25.589185,2.4964001 c -0.825233,0.079 -1.701409,0.2238 -2.615337,0.4171 l -5.790065,5.9421 c 0.663673,0.08 1.271043,0.2117 1.825341,0.3975 l 6.580061,-6.7567 z m 4.077585,0.3336 L 21.653908,11.049 c 2.253536,2.9204 1.459719,8.7868 -3.28267,18.4546 3.508649,-3.8301 18.8215,-22.8633999 11.815655,-26.4526999 -0.162655,-0.083 -0.340525,-0.1551 -0.520123,-0.2209 z m -10.677271,1.1581 c -1.108442,0.3527 -2.236684,0.7526 -3.361181,1.1776 l -3.832239,3.9304 c 0.879061,-0.1425 1.712563,-0.2383 2.497579,-0.2895 l 4.695841,-4.8185 z m -5.745904,2.1148 C 6.2521236,8.9787001 4.9797358e-5,12.4916 4.9797358e-5,12.4916 3.7140933,11.0997 7.0683657,10.0592 9.99527,9.4346001 l 3.248325,-3.3317 z"
     style="fill:#787dab;opacity:0.3" />
</svg>
