<?xml version="1.0" encoding="UTF-8" standalone="no"?>
<svg
   xmlns:dc="http://purl.org/dc/elements/1.1/"
   xmlns:cc="http://creativecommons.org/ns#"
   xmlns:rdf="http://www.w3.org/1999/02/22-rdf-syntax-ns#"
   xmlns:svg="http://www.w3.org/2000/svg"
   xmlns="http://www.w3.org/2000/svg"
   width="256"
   height="216.058"
   version="1.1">
  <title>Parabola Official Icon (Default Color with 0.3 opacity - Silhouette)</title>
  <metadata>
    <rdf:RDF>
      <cc:Work
         rdf:about="">
        <dc:format>image/svg+xml</dc:format>
        <dc:type
           rdf:resource="http://purl.org/dc/dcmitype/StillImage" />
        <dc:title>Parabola Official Icon (Default Color with 0.3 opacity - Silhouette)</dc:title>
        <cc:license
           rdf:resource="https://projects.parabola.nu/pac.git/tree/COPYING" />
        <dc:date>2013/04/18</dc:date>
        <dc:creator>
          <cc:Agent>
            <dc:title>Jorge Araya Navarro &lt;elcorreo@deshackra.com&gt;</dc:title>
          </cc:Agent>
        </dc:creator>
        <dc:subject>
          <rdf:Bag>
            <rdf:li>Parabola</rdf:li>
          </rdf:Bag>
        </dc:subject>
      </cc:Work>
    </rdf:RDF>
  </metadata>
  <path
     id="path_parabola_officialIcon-silhouette_r256x216d058px_p256x216d058px"
     d="M 204.71372,-1.3427734e-6 C 198.11181,0.63083045 191.1024,1.7903122 183.79094,3.3366392 L 137.4703,50.874105 c 5.30939,0.638711 10.16837,1.693204 14.60277,3.179639 L 204.71372,-1.3427734e-6 Z M 237.33448,2.6693085 173.23141,68.420967 C 191.25974,91.784287 184.90919,138.71531 146.96997,216.058 175.03924,185.41759 297.54242,33.150639 241.49549,4.4357981 240.19423,3.7691014 238.77127,3.1956255 237.33448,2.6693085 Z m -85.41841,9.2641345 c -8.86756,2.821846 -17.89353,6.020873 -26.88954,9.421122 L 94.368532,52.797583 C 101.40104,51.65743 108.06908,50.891044 114.34923,50.481557 L 151.91607,11.933443 Z M 105.94871,28.852208 C 50.016756,51.859013 1.5046602e-5,79.961875 1.5046602e-5,79.961875 29.712452,68.826926 56.54671,60.502762 79.962017,55.506158 l 25.986693,-26.65395 z"
     style="fill:#787dab;opacity:0.3" />
</svg>
