<?xml version="1.0" encoding="UTF-8" standalone="no"?>
<svg
   xmlns:dc="http://purl.org/dc/elements/1.1/"
   xmlns:cc="http://creativecommons.org/ns#"
   xmlns:rdf="http://www.w3.org/1999/02/22-rdf-syntax-ns#"
   xmlns:svg="http://www.w3.org/2000/svg"
   xmlns="http://www.w3.org/2000/svg"
   width="32"
   height="32"
   version="1.1">
  <title>Parabola Retro Icon (Default Color with 0.3 opacity - Silhouette, recreation of legacy icon)</title>
  <metadata>
    <rdf:RDF>
      <cc:Work
         rdf:about="">
        <dc:format>image/svg+xml</dc:format>
        <dc:type
           rdf:resource="http://purl.org/dc/dcmitype/StillImage" />
        <dc:title>Parabola Retro Icon (Default Color with 0.3 opacity - Silhouette, recreation of legacy icon)</dc:title>
        <cc:license
           rdf:resource="https://projects.parabola.nu/pac.git/tree/COPYING" />
        <dc:date>2015/09/18</dc:date>
        <dc:creator>
          <cc:Agent>
            <dc:title>Márcio Alexandre Silva Delgado &lt;coadde@parabola.nu&gt;</dc:title>
          </cc:Agent>
        </dc:creator>
        <dc:subject>
          <rdf:Bag>
            <rdf:li>Parabola</rdf:li>
          </rdf:Bag>
        </dc:subject>
      </cc:Work>
    </rdf:RDF>
  </metadata>
  <path
     id="path_parabola_retroIcon-silhouette_r32px2_p32x30d138px"
     d="m 1.6716064e-7,11.105127 c 0,0 25.09259683283936,-14.3394997 30.85159583283936,-8.9715997 6.175138,5.7557 -14.565128,28.9356997 -14.565128,28.9356997 0,0 10.181964,-14.0546 5.932918,-20.9977 C 18.515236,4.0187273 1.6716065e-7,11.105127 1.6716065e-7,11.105127 Z"
     style="fill:#ffffff;opacity:0.3" />
</svg>
