<?xml version="1.0" encoding="UTF-8" standalone="no"?>
<svg
   xmlns:dc="http://purl.org/dc/elements/1.1/"
   xmlns:cc="http://creativecommons.org/ns#"
   xmlns:rdf="http://www.w3.org/1999/02/22-rdf-syntax-ns#"
   xmlns:svg="http://www.w3.org/2000/svg"
   xmlns="http://www.w3.org/2000/svg"
   width="24"
   height="24"
   version="1.1">
  <title>Parabola Retro Icon (Black Color, recreation of legacy icon)</title>
  <metadata>
    <rdf:RDF>
      <cc:Work
         rdf:about="">
        <dc:format>image/svg+xml</dc:format>
        <dc:type
           rdf:resource="http://purl.org/dc/dcmitype/StillImage" />
        <dc:title>Parabola Retro Icon (Black Color, recreation of legacy icon)</dc:title>
        <cc:license
           rdf:resource="https://projects.parabola.nu/pac.git/tree/COPYING" />
        <dc:date>2015/09/18</dc:date>
        <dc:creator>
          <cc:Agent>
            <dc:title>Márcio Alexandre Silva Delgado &lt;coadde@parabola.nu&gt;</dc:title>
          </cc:Agent>
        </dc:creator>
        <dc:subject>
          <rdf:Bag>
            <rdf:li>Parabola</rdf:li>
          </rdf:Bag>
        </dc:subject>
      </cc:Work>
    </rdf:RDF>
  </metadata>
  <path
     id="path_parabola_retroIcon-black_r24px2_p24x22d604px"
     d="m 1.6683686e-7,8.3288287 c 0,0 18.81944683316314,-10.7546 23.13869683316314,-6.7287 4.631353,4.3168 -10.923846,21.7018003 -10.923846,21.7018003 0,0 7.636473,-10.5409 4.449688,-15.7483003 C 13.886427,3.0140287 1.6683686e-7,8.3288287 1.6683686e-7,8.3288287 Z"
     style="fill:#000000" />
</svg>
