<?xml version="1.0" encoding="UTF-8" standalone="no"?>
<svg
   xmlns:dc="http://purl.org/dc/elements/1.1/"
   xmlns:cc="http://creativecommons.org/ns#"
   xmlns:rdf="http://www.w3.org/1999/02/22-rdf-syntax-ns#"
   xmlns:svg="http://www.w3.org/2000/svg"
   xmlns="http://www.w3.org/2000/svg"
   width="350"
   height="350"
   version="1.1">
  <title>Parabola Classic Icon (Black Color)</title>
  <metadata>
    <rdf:RDF>
      <cc:Work
         rdf:about="">
        <dc:format>image/svg+xml</dc:format>
        <dc:type
           rdf:resource="http://purl.org/dc/dcmitype/StillImage" />
        <dc:title>Parabola Classic Icon (Black Color)</dc:title>
        <cc:license
           rdf:resource="http://creativecommons.org/licenses/by-sa/4.0/" />
        <dc:date>2013/04/25</dc:date>
        <dc:creator>
          <cc:Agent>
            <dc:title>Luke Shumaker &lt;lukeshu@sbcglobal.net&gt;</dc:title>
          </cc:Agent>
        </dc:creator>
        <dc:subject>
          <rdf:Bag>
            <rdf:li>Parabola</rdf:li>
          </rdf:Bag>
        </dc:subject>
      </cc:Work>
    </rdf:RDF>
  </metadata>
  <g
     id="g_parabola_classicIcon-black_r350px2_p258d728x246d881px"
     transform="rotate(230,175,175)">
    <g
       id="g_parabola_classicIcon-black_2paths+2translates+mask"
       transform="translate(69,55)">
      <g
         id="g_parabola_classicIcon-black_2paths+translate"
         transform="translate(-94,-10)"><!-- 212x240 -->
        <path
           id="path_parabola_classicIcon-black_gray"
           d="M 94,10 Q 147,210 200,210 T 306,10 Q 253,190 200,190 T 94,10 z"
           style="fill:#000000" />
        <path
           id="path_parabola_classicIcon-black_purple"
           d="M 100,50 Q 150,250 200,250 T 300,50 Q 250,200 200,200 T 100,50 z"
           style="fill:#000000" />
      </g>
    </g>
  </g>
</svg>
